Customization
…
 8     1 access         0.0276
 9     1 applications   0.0275
10     1 application    0.0274
11     2 people         0.0800
12     2 time           0.0695
13     2 process        0.0485
14     2 application    0.0381
15     2 applications   0.0381
16     2 access         0.0380
17     2 timeconsuming  0.0264
18     2 campaigns      0.0260
19     2 buses          0.0254
20     2 simplifying    0.0253

# A tibble: 30 × 3
# Groups:   topic [3]
   topic term             beta
   <int> <chr>           <dbl>
 1     1 time           0.0778
 2     1 transportation 0.0543
 3     1 services       0.0542
 4     1 lot            0.0390
 5     1 residents      0.0353
 6     1 applications   0.0347
 7     1 access         0.0312
 8     1 vouchers       0.0261
 9     1 makes          0.0256
10     1 planning       0.0249
# ℹ 20 more rows
…
